module gitlab.com/busforce/microtut

go 1.14

require (
	github.com/go-playground/universal-translator v0.17.0 // indirect
	github.com/go-playground/validator v9.31.0+incompatible
	github.com/gorilla/mux v1.7.4
	github.com/leodido/go-urn v1.2.0 // indirect
	github.com/nicholasjackson/env v0.6.0
)
